[
  {
    "id": 1,
    "name": "Action",
    "logo": "images/partners/Action/logo.png",
    "wlogo": "images/partners/Action/logo.jpg",
    "productTypes": [
      {
        "productTypeId": 0,
        "productType": "Product Type 1",
        "productDescription": "Action provides athletic floors worldwide for universities, schools, professional arenas, racquetball/squash courts, aerobic/dance rooms, and more. Choose from our premium, solid maple permanent and portable floor systems and eco-friendly Action",
        "photos": [
          {
            "type": "image",
            "path": "images/partners/Action/Prodcut Type 1/1.jpg",
            "path_thumb": "images/partners/Action/Prodcut Type 1/1_thumb.jpg",
            "title": "1"
          },
          {
            "type": "image",
            "path": "images/partners/Action/Prodcut Type 1/2.jpg",
            "path_thumb": "images/partners/Action/Prodcut Type 1/2_thumb.jpg",
            "title": "2"
          },
          {
            "type": "image",
            "path": "images/partners/Action/Prodcut Type 1/3.jpg",
            "path_thumb": "images/partners/Action/Prodcut Type 1/3_thumb.jpg",
            "title": "3"
          },
          {
            "type": "image",
            "path": "images/partners/Action/Prodcut Type 1/4.jpg",
            "path_thumb": "images/partners/Action/Prodcut Type 1/4_thumb.jpg",
            "title": "4"
          },
          {
            "type": "image",
            "path": "images/partners/Action/Prodcut Type 1/5.jpg",
            "path_thumb": "images/partners/Action/Prodcut Type 1/5_thumb.jpg",
            "title": "5"
          },
          {
            "type": "image",
            "path": "images/partners/Action/Prodcut Type 1/6.jpg",
            "path_thumb": "images/partners/Action/Prodcut Type 1/6_thumb.jpg",
            "title": "6"
          },
          {
            "type": "image",
            "path": "images/partners/Action/Prodcut Type 1/7.jpg",
            "path_thumb": "images/partners/Action/Prodcut Type 1/7_thumb.jpg",
            "title": "7"
          },
          {
            "type": "image",
            "path": "images/partners/Action/Prodcut Type 1/8.jpg",
            "path_thumb": "images/partners/Action/Prodcut Type 1/8_thumb.jpg",
            "title": "8"
          }
        ]
      }
    ]
  },
  {
    "id": 2,
    "name": "Colorado",
    "logo": "images/partners/Colorado/logo.png",
    "wlogo": "images/partners/Colorado/logo.jpg",
    "productTypes": [
      {
        "productTypeId": 0,
        "productType": "Product Type 1",
        "productDescription": "Colorado Time Systems (CTS) is an American company based in Loveland, Colorado that designs, manufactures, sells, and services aquatic timing systems, scoreboards, LED video displays, and related products.",
        "photos": [
          {
            "type": "image",
            "path": "images/partners/Colorado/Product Type 1/1.jpg",
            "path_thumb": "images/partners/Colorado/Product Type 1/1_thumb.jpg",
            "title": "1"
          },
          {
            "type": "image",
            "path": "images/partners/Colorado/Product Type 1/2.jpg",
            "path_thumb": "images/partners/Colorado/Product Type 1/2_thumb.jpg",
            "title": "2"
          },
          {
            "type": "image",
            "path": "images/partners/Colorado/Product Type 1/3.jpg",
            "path_thumb": "images/partners/Colorado/Product Type 1/3_thumb.jpg",
            "title": "3"
          },
          {
            "type": "image",
            "path": "images/partners/Colorado/Product Type 1/4.jpg",
            "path_thumb": "images/partners/Colorado/Product Type 1/4_thumb.jpg",
            "title": "4"
          },
          {
            "type": "image",
            "path": "images/partners/Colorado/Product Type 1/5.jpg",
            "path_thumb": "images/partners/Colorado/Product Type 1/5_thumb.jpg",
            "title": "5"
          },
          {
            "type": "image",
            "path": "images/partners/Colorado/Product Type 1/6.jpg",
            "path_thumb": "images/partners/Colorado/Product Type 1/6_thumb.jpg",
            "title": "6"
          },
          {
            "type": "image",
            "path": "images/partners/Colorado/Product Type 1/7.jpg",
            "path_thumb": "images/partners/Colorado/Product Type 1/7_thumb.jpg",
            "title": "7"
          }
        ]
      },
      {
        "productTypeId": 1,
        "productType": "Product Type 2",
        "productDescription": "Colorado Time Systems (CTS) is an American company based in Loveland, Colorado that designs, manufactures, sells, and services aquatic timing systems, scoreboards, LED video displays, and related products.",
        "photos": [
          {
            "type": "image",
            "path": "images/partners/Colorado/Product Type 2/AquaGrip Touchpads.jpg",
            "path_thumb": "images/partners/Colorado/Product Type 2/AquaGrip Touchpads_thumb.jpg",
            "title": "Aqua Grip Touchpads"
          },
          {
            "type": "image",
            "path": "images/partners/Colorado/Product Type 2/Championship Start System.jpg",
            "path_thumb": "images/partners/Colorado/Product Type 2/Championship Start System_thumb.jpg",
            "title": "Championship Start System"
          },
          {
            "type": "image",
            "path": "images/partners/Colorado/Product Type 2/Dolphin Wireless Stopwatch Timing System.jpg",
            "path_thumb": "images/partners/Colorado/Product Type 2/Dolphin Wireless Stopwatch Timing System_thumb.jpg",
            "title": "Dolphin Wireless Stopwatch Timing System"
          },
          {
            "type": "image",
            "path": "images/partners/Colorado/Product Type 2/Infinity Start System.jpg",
            "path_thumb": "images/partners/Colorado/Product Type 2/Infinity Start System_thumb.jpg",
            "title": "Infinity Start System"
          },
          {
            "type": "image",
            "path": "images/partners/Colorado/Product Type 2/Racing Block.jpg",
            "path_thumb": "images/partners/Colorado/Product Type 2/Racing Block_thumb.jpg",
            "title": "Racing Block"
          },
          {
            "type": "image",
            "path": "images/partners/Colorado/Product Type 2/Relay Judging Flatform with Speed Light.jpg",
            "path_thumb": "images/partners/Colorado/Product Type 2/Relay Judging Flatform with Speed Light_thumb.jpg",
            "title": "Relay Judging Flatform with Speed Light"
          },
          {
            "type": "image",
            "path": "images/partners/Colorado/Product Type 2/Standard Surface Touchpads.jpg",
            "path_thumb": "images/partners/Colorado/Product Type 2/Standard Surface Touchpads_thumb.jpg",
            "title": "Standard Surface Touchpads"
          },
          {
            "type": "image",
            "path": "images/partners/Colorado/Product Type 2/Starting Flatform.jpg",
            "path_thumb": "images/partners/Colorado/Product Type 2/Starting Flatform_thumb.jpg",
            "title": "Starting Flatform"
          },
          {
            "type": "image",
            "path": "images/partners/Colorado/Product Type 2/System 5 Controlls.jpg",
            "path_thumb": "images/partners/Colorado/Product Type 2/System 5 Controlls_thumb.jpg",
            "title": "System 5 Controlls.jpg"
          },
          {
            "type": "image",
            "path": "images/partners/Colorado/Product Type 2/System 6 Timing Console.jpg",
            "path_thumb": "images/partners/Colorado/Product Type 2/System 6 Timing Console.jpg",
            "title": "System 6 Timing Console"
          },
          {
            "type": "image",
            "path": "images/partners/Colorado/Product Type 2/Touch Pad Caddy.jpg",
            "path_thumb": "images/partners/Colorado/Product Type 2/Touch Pad Caddy_thumb.jpg",
            "title": "Touch Pad Caddy"
          },
          {
            "type": "image",
            "path": "images/partners/Colorado/Product Type 2/Wireless Judging Terminals for Diving.jpg",
            "path_thumb": "images/partners/Colorado/Product Type 2/Wireless Judging Terminals for Diving_thumb.jpg",
            "title": "Wireless Judging Terminals for Diving"
          }
        ]
      }
    ]
  },
  {
    "id": 3,
    "name": "Fair-Play",
    "logo": "images/partners/Fair-Play/logo.png",
    "wlogo": "images/partners/Fair-Play/logo.jpg",
    "productTypes": [
      {
        "productTypeId": 0,
        "productType": "Product Type 1",
        "productDescription": "With literally tens of thousands of scoreboards and data displays installed around the world, Fair-Play by Trans-Lux has earned a reputation for reliability and long-life that spans over 80 years. Now Fair-Play has further expanded its line of scoreboard solutions with a newly launched line of digital data and video displays marketed under the TL Vision brand, and new Hand-Held Remote and Control devices. It’s the most versatile scoreboard solution attainable–at the greatest value.",
        "photos": [
          {
            "type": "image",
            "path": "images/partners/Fair-Play/Product Type 1/1.jpg",
            "path_thumb": "images/partners/Fair-Play/Product Type 1/1_thumb.jpg",
            "title": "1"
          },
          {
            "type": "image",
            "path": "images/partners/Fair-Play/Product Type 1/5.jpg",
            "path_thumb": "images/partners/Fair-Play/Product Type 1/5_thumb.jpg",
            "title": "5"
          },
          {
            "type": "image",
            "path": "images/partners/Fair-Play/Product Type 1/6.jpg",
            "path_thumb": "images/partners/Fair-Play/Product Type 1/6_thumb.jpg",
            "title": "6"
          },
          {
            "type": "image",
            "path": "images/partners/Fair-Play/Product Type 1/7.jpg",
            "path_thumb": "images/partners/Fair-Play/Product Type 1/7_thumb.jpg",
            "title": "7"
          },
          {
            "type": "image",
            "path": "images/partners/Fair-Play/Product Type 1/8.jpg",
            "path_thumb": "images/partners/Fair-Play/Product Type 1/8_thumb.jpg",
            "title": "8"
          }
        ]
      }
    ]
  },
  {
    "id": 4,
    "name": "Herculan",
    "logo": "images/partners/Herculan/logo.png",
    "wlogo": "images/partners/Herculan/logo.jpg",
    "productTypes": [
      {
        "productTypeId": 0,
        "productType": "Indoor Surfaces",
        "productDescription": "Manufacturer of polyurethane indoor sports floors the company grows into one of the most important mayor producers and installers of sports flooring systems.",
        "photos": [
          {
            "type": "image",
            "path": "images/partners/Herculan/Product Type 1/1.jpg",
            "path_thumb": "images/partners/Herculan/Product Type 1/1_thumb.jpg",
            "title": "1"
          },
          {
            "type": "image",
            "path": "images/partners/Herculan/Product Type 1/5.jpg",
            "path_thumb": "images/partners/Herculan/Product Type 1/5_thumb.jpg",
            "title": "5"
          }
        ]
      }
    ]
  },
  {
    "id": 5,
    "name": "Hussey",
    "logo": "images/partners/Hussey/logo.png",
    "wlogo": "images/partners/Hussey/logo.jpg",
    "description": "Indoor gymnasium or outdoor stadium, telescopic bleachers or fixed seating and portable retractable bleachers—Hussey Seating has your seating solution.",
    "productTypes": [
      {
        "productTypeId": 0,
        "productType": "Product Type 1",
        "productDescription": "Indoor gymnasium or outdoor stadium, telescopic bleachers or fixed seating and portable retractable bleachers—Hussey Seating has your seating solution.",
        "photos": [
          {
            "type": "image",
            "path": "images/partners/Hussey/Product Type 1/1.JPG",
            "path_thumb": "images/partners/Hussey/Product Type 1/1_thumb.JPG",
            "title": "1"
          },
          {
            "type": "image",
            "path": "images/partners/Hussey/Product Type 1/2.JPG",
            "path_thumb": "images/partners/Hussey/Product Type 1/2_thumb.JPG",
            "title": "2"
          },
          {
            "type": "image",
            "path": "images/partners/Hussey/Product Type 1/3.JPG",
            "path_thumb": "images/partners/Hussey/Product Type 1/3_thumb.JPG",
            "title": "3"
          },
          {
            "type": "image",
            "path": "images/partners/Hussey/Product Type 1/4.JPG",
            "path_thumb": "images/partners/Hussey/Product Type 1/4_thumb.JPG",
            "title": "4"
          },
          {
            "type": "video",
            "path": "images/partners/Hussey/Product Type 1/British Hussey Seating.mp4",
            "path_thumb": "images/partners/Hussey/Product Type 1/British Hussey Seating.png",
            "title": "British Hussey Seating"
          }
        ]
      }
    ]
  },
  {
    "id": 6,
    "name": "Playworld",
    "logo": "images/partners/Playworld/logo.png",
    "wlogo": "images/partners/Playworld/logo.jpg",
    "description": "",
    "productTypes": [
      {
        "productTypeId": 0,
        "productType": "Product Type 1",
        "productDescription": "The leader in commercial playground equipment for parks, schools, daycares, neighborhoods, and more. Complete custom design and installation services.",
        "photos": [
          {
            "type": "image",
            "path": "images/partners/Playworld/Product Type 1/1.jpg",
            "path_thumb": "images/partners/Playworld/Product Type 1/1_thumb.jpg",
            "title": "1"
          },
          {
            "type": "image",
            "path": "images/partners/Playworld/Product Type 1/2.jpg",
            "path_thumb": "images/partners/Playworld/Product Type 1/2_thumb.jpg",
            "title": "2"
          },
          {
            "type": "image",
            "path": "images/partners/Playworld/Product Type 1/3.jpg",
            "path_thumb": "images/partners/Playworld/Product Type 1/3_thumb.jpg",
            "title": "3"
          }
        ]
      }
    ]
  },
  {
    "id": 7,
    "name": "Porter",
    "logo": "images/partners/Porter/logo.png",
    "wlogo": "images/partners/Porter/logo.jpg",
    "description": "",
    "productTypes": [
      {
        "productTypeId": 0,
        "productType": "Product Type 1",
        "productDescription": "",
        "photos": [
          {
            "type": "image",
            "path": "images/partners/Plexipave/Product Type 1/1.jpg",
            "path_thumb": "images/partners/Plexipave/Product Type 1/1_thumb.jpg",
            "title": "1"
          },
          {
            "type": "image",
            "path": "images/partners/Plexipave/Product Type 1/2.jpg",
            "path_thumb": "images/partners/Plexipave/Product Type 1/2_thumb.jpg",
            "title": "2"
          },
          {
            "type": "image",
            "path": "images/partners/Plexipave/Product Type 1/3.jpg",
            "path_thumb": "images/partners/Plexipave/Product Type 1/3_thumb.jpg",
            "title": "3"
          },
          {
            "type": "image",
            "path": "images/partners/Plexipave/Product Type 1/4.jpg",
            "path_thumb": "images/partners/Plexipave/Product Type 1/4_thumb.jpg",
            "title": "4"
          }
        ]
      }
    ]
  }
]